team1|team2|y
California|Hawaii|1
Indiana|Florida International|1
Louisville|Charlotte|1
Minnesota|Oregon State|1
South Carolina|Vanderbilt|1
Tennessee|Appalachian State|1
Wake Forest|Tulane|1
Western Kentucky|Rice|1
Army|Temple|1
Ball State|Georgia State|1
Colorado|Colorado State|1
Stanford|Kansas State|1
Toledo|Arkansas State|1
Alabama|Southern California|1
Arkansas|Louisiana Tech|1
Boise State|Louisiana-Lafayette|1
Brigham Young|Arizona|1
Clemson|Auburn|1
Florida|Massachusetts|1
Georgia|North Carolina|1
Georgia Tech|Boston College|1
Houston|Oklahoma|1
Iowa|Miami (OH)|1
Michigan|Hawaii|1
Nebraska|Fresno State|1
Ohio State|Bowling Green State|1
Penn State|Kent State|1
South Alabama|Mississippi State|1
Southern Methodist|North Texas|1
Southern Mississippi|Kentucky|1
Texas A&M|UCLA|1
Texas State|Ohio|1
Texas-El Paso|New Mexico State|1
Tulsa|San Jose State|1
Washington|Rutgers|1
West Virginia|Missouri|1
Western Michigan|Northwestern|1
Wisconsin|Louisiana State|1
Wyoming|Northern Illinois|1
Texas|Notre Dame|1
Florida State|Mississippi|1
Louisville|Syracuse|1
Maryland|Florida International|1
Air Force|Georgia State|1
Alabama|Western Kentucky|1
Appalachian State|Old Dominion|1
Arizona State|Texas Tech|1
Arkansas|Texas Christian|1
Army|Rice|1
Auburn|Arkansas State|1
Baylor|Southern Methodist|1
Boise State|Washington State|1
Boston College|Massachusetts|1
Central Michigan|Oklahoma State|1
Cincinnati|Purdue|1
Clemson|Troy|1
Colorado State|Texas-San Antonio|1
East Carolina|North Carolina State|1
Florida|Kentucky|1
Georgia Southern|South Alabama|1
Indiana|Ball State|1
Iowa|Iowa State|1
Miami (FL)|Florida Atlantic|1
Michigan|Central Florida|1
Mississippi State|South Carolina|1
Missouri|Eastern Michigan|1
Navy|Connecticut|1
Nebraska|Wyoming|1
New Mexico State|New Mexico|1
North Carolina|Illinois|1
Notre Dame|Nevada|1
Ohio|Kansas|1
Ohio State|Tulsa|1
Oklahoma|Louisiana-Monroe|1
Oregon|Virginia|1
Pittsburgh|Penn State|1
San Diego State|California|1
South Florida|Northern Illinois|1
Southern California|Utah State|1
Tennessee|Virginia Tech|1
Texas|Texas-El Paso|1
UCLA|Nevada-Las Vegas|1
Utah|Brigham Young|1
Vanderbilt|Middle Tennessee State|1
Wake Forest|Duke|1
Washington|Idaho|1
Wisconsin|Akron|1
Houston|Cincinnati|1
Arizona State|Texas-San Antonio|1
Baylor|Rice|1
Utah State|Arkansas State|1
Akron|Marshall|1
Alabama|Mississippi|1
Arizona|Hawaii|1
Arkansas|Texas State|1
Army|Texas-El Paso|1
California|Texas|1
Central Michigan|Nevada-Las Vegas|1
Connecticut|Virginia|1
Eastern Michigan|Charlotte|1
Florida|North Texas|1
Georgia|Missouri|1
Georgia Southern|Louisiana-Monroe|1
Georgia Tech|Vanderbilt|1
Kansas State|Florida Atlantic|1
Kentucky|New Mexico State|1
Louisiana State|Mississippi State|1
Louisiana-Lafayette|South Alabama|1
Louisville|Florida State|1
Maryland|Central Florida|1
Massachusetts|Florida International|1
Memphis|Kansas|1
Miami (FL)|Appalachian State|1
Michigan|Colorado|1
Michigan State|Notre Dame|1
Middle Tennessee State|Bowling Green State|1
Navy|Tulane|1
Nebraska|Oregon|1
Nevada|Buffalo|1
North Carolina State|Old Dominion|1
Northwestern|Duke|1
Ohio State|Oklahoma|1
Oklahoma State|Pittsburgh|1
Penn State|Temple|1
Rutgers|New Mexico|1
San Diego State|Northern Illinois|1
South Carolina|East Carolina|1
South Florida|Syracuse|1
Stanford|Southern California|1
Tennessee|Ohio|1
Texas A&M|Auburn|1
Texas Christian|Iowa State|1
Texas Tech|Louisiana Tech|1
Toledo|Fresno State|1
Troy|Southern Mississippi|1
UCLA|Brigham Young|1
Utah|San Jose State|1
Virginia Tech|Boston College|1
Washington State|Idaho|1
Western Kentucky|Miami (OH)|1
Western Michigan|Illinois|1
Wisconsin|Georgia State|1
Clemson|Georgia Tech|1
Eastern Michigan|Wyoming|1
Texas Christian|Southern Methodist|1
Utah|Southern California|1
Air Force|Utah State|1
Alabama|Kent State|1
Appalachian State|Akron|1
Arizona State|California|1
Auburn|Louisiana State|1
Ball State|Florida Atlantic|1
Baylor|Oklahoma State|1
Boise State|Oregon State|1
Buffalo|Army|1
Central Florida|Florida International|1
Cincinnati|Miami (OH)|1
Colorado|Oregon|1
Duke|Notre Dame|1
Florida State|South Florida|1
Houston|Texas State|1
Idaho|Nevada-Las Vegas|1
Iowa|Rutgers|1
Iowa State|San Jose State|1
Kentucky|South Carolina|1
Louisville|Marshall|1
Memphis|Bowling Green State|1
Michigan|Penn State|1
Middle Tennessee State|Louisiana Tech|1
Minnesota|Colorado State|1
Mississippi|Georgia|1
Mississippi State|Massachusetts|1
Nebraska|Northwestern|1
North Carolina|Pittsburgh|1
North Texas|Rice|1
Old Dominion|Texas-San Antonio|1
Purdue|Nevada|1
Southern Mississippi|Texas-El Paso|1
Stanford|UCLA|1
Syracuse|Connecticut|1
Temple|Charlotte|1
Tennessee|Florida|1
Texas A&M|Arkansas|1
Troy|New Mexico State|1
Tulane|Louisiana-Lafayette|1
Tulsa|Fresno State|1
Vanderbilt|Western Kentucky|1
Virginia|Central Michigan|1
Virginia Tech|East Carolina|1
Wake Forest|Indiana|1
Washington|Arizona|1
West Virginia|Brigham Young|1
Western Michigan|Georgia Southern|1
Wisconsin|Michigan State|1
Houston|Connecticut|1
Texas Tech|Kansas|1
Brigham Young|Toledo|1
Washington|Stanford|1
Air Force|Navy|1
Akron|Kent State|1
Alabama|Kentucky|1
Appalachian State|Georgia State|1
Auburn|Louisiana-Monroe|1
Baylor|Iowa State|1
Boise State|Utah State|1
Boston College|Buffalo|1
California|Utah|1
Central Florida|East Carolina|1
Clemson|Louisville|1
Colorado|Oregon State|1
Eastern Michigan|Bowling Green State|1
Florida|Vanderbilt|1
Florida International|Florida Atlantic|1
Hawaii|Nevada|1
Indiana|Michigan State|1
Louisiana State|Missouri|1
Louisiana Tech|Texas-El Paso|1
Maryland|Purdue|1
Miami (FL)|Georgia Tech|1
Michigan|Wisconsin|1
Middle Tennessee State|North Texas|1
Mississippi|Memphis|1
Nebraska|Illinois|1
Nevada-Las Vegas|Fresno State|1
New Mexico|San Jose State|1
New Mexico State|Louisiana-Lafayette|1
North Carolina|Florida State|1
North Carolina State|Wake Forest|1
Northern Illinois|Ball State|1
Northwestern|Iowa|1
Notre Dame|Syracuse|1
Ohio|Miami (OH)|1
Ohio State|Rutgers|1
Oklahoma|Texas Christian|1
Oklahoma State|Texas|1
Old Dominion|Charlotte|1
Penn State|Minnesota|1
Pittsburgh|Marshall|1
South Alabama|San Diego State|1
South Florida|Cincinnati|1
Southern California|Arizona State|1
Southern Mississippi|Rice|1
Temple|Southern Methodist|1
Tennessee|Georgia|1
Texas A&M|South Carolina|1
Troy|Idaho|1
Tulane|Massachusetts|1
UCLA|Arizona|1
Virginia|Duke|1
Washington State|Oregon|1
West Virginia|Kansas State|1
Western Michigan|Central Michigan|1
Wyoming|Colorado State|1
Arkansas State|Georgia Southern|1
Louisiana Tech|Western Kentucky|1
Memphis|Temple|1
Boise State|New Mexico|1
Clemson|Boston College|1
Old Dominion|Massachusetts|1
Tulsa|Southern Methodist|1
Akron|Miami (OH)|1
Alabama|Arkansas|1
Arizona State|UCLA|1
Auburn|Mississippi State|1
Brigham Young|Michigan State|1
Central Michigan|Ball State|1
Colorado State|Utah State|1
Connecticut|Cincinnati|1
Duke|Army|1
Florida International|Texas-El Paso|1
Florida State|Miami (FL)|1
Georgia State|Texas State|1
Hawaii|San Jose State|1
Idaho|Louisiana-Monroe|1
Iowa|Minnesota|1
Kansas State|Texas Tech|1
Kent State|Buffalo|1
Kentucky|Vanderbilt|1
Michigan|Rutgers|1
Navy|Houston|1
Nevada|Fresno State|1
North Carolina State|Notre Dame|1
North Texas|Marshall|1
Ohio|Bowling Green State|1
Ohio State|Indiana|1
Oklahoma|Texas|1
Oklahoma State|Iowa State|1
Oregon State|California|1
Penn State|Maryland|1
Pittsburgh|Georgia Tech|1
Purdue|Illinois|1
San Diego State|Nevada-Las Vegas|1
South Florida|East Carolina|1
Southern California|Colorado|1
Texas A&M|Tennessee|1
Texas Christian|Kansas|1
Texas-San Antonio|Southern Mississippi|1
Toledo|Eastern Michigan|1
Utah|Arizona|1
Virginia Tech|North Carolina|1
Wake Forest|Syracuse|1
Washington|Oregon|1
Washington State|Stanford|1
Western Michigan|Northern Illinois|1
Wyoming|Air Force|1
Charlotte|Florida Atlantic|1
Georgia|South Carolina|1
Appalachian State|Louisiana-Lafayette|1
Brigham Young|Mississippi State|1
Louisville|Duke|1
Memphis|Tulane|1
San Diego State|Fresno State|1
Alabama|Tennessee|1
Arkansas|Mississippi|1
Arkansas State|South Alabama|1
Ball State|Buffalo|1
Baylor|Kansas|1
Boise State|Colorado State|1
Central Michigan|Northern Illinois|1
Clemson|North Carolina State|1
Colorado|Arizona State|1
Eastern Michigan|Ohio|1
Florida|Missouri|1
Florida International|Charlotte|1
Florida State|Wake Forest|1
Georgia Tech|Georgia Southern|1
Houston|Tulsa|1
Idaho|New Mexico State|1
Illinois|Rutgers|1
Iowa|Purdue|1
Louisiana State|Southern Mississippi|1
Louisiana Tech|Massachusetts|1
Louisiana-Monroe|Texas State|1
Marshall|Florida Atlantic|1
Miami (OH)|Kent State|1
Minnesota|Maryland|1
Nebraska|Indiana|1
Nevada-Las Vegas|Hawaii|1
New Mexico|Air Force|1
North Carolina|Miami (FL)|1
Northwestern|Michigan State|1
Ohio State|Wisconsin|1
Oklahoma|Kansas State|1
Pittsburgh|Virginia|1
San Jose State|Nevada|1
South Florida|Connecticut|1
Southern California|Arizona|1
Stanford|Notre Dame|1
Syracuse|Virginia Tech|1
Temple|Central Florida|1
Texas|Iowa State|1
Texas-San Antonio|Rice|1
Toledo|Bowling Green State|1
Troy|Georgia State|1
Utah|Oregon State|1
Vanderbilt|Georgia|1
Washington State|UCLA|1
West Virginia|Texas Tech|1
Western Kentucky|Middle Tennessee State|1
Western Michigan|Akron|1
Boise State|Brigham Young|1
Troy|South Alabama|1
Virginia Tech|Miami (FL)|1
California|Oregon|1
San Diego State|San Jose State|1
Temple|South Florida|1
Akron|Ball State|1
Alabama|Texas A&M|1
Appalachian State|Idaho|1
Auburn|Arkansas|1
Central Florida|Connecticut|1
Charlotte|Marshall|1
Cincinnati|East Carolina|1
Colorado|Stanford|1
Colorado State|Nevada-Las Vegas|1
Georgia Southern|New Mexico State|1
Hawaii|Air Force|1
Kansas State|Texas|1
Kentucky|Mississippi State|1
Louisiana State|Mississippi|1
Louisiana Tech|Florida International|1
Louisiana-Lafayette|Texas State|1
Louisville|North Carolina State|1
Maryland|Michigan State|1
Miami (OH)|Bowling Green State|1
Michigan|Illinois|1
Middle Tennessee State|Missouri|1
Minnesota|Rutgers|1
Navy|Memphis|1
Nebraska|Purdue|1
New Mexico|Louisiana-Monroe|1
North Carolina|Virginia|1
North Texas|Army|1
Northern Illinois|Buffalo|1
Northwestern|Indiana|1
Ohio|Kent State|1
Oklahoma|Texas Tech|1
Oklahoma State|Kansas|1
Penn State|Ohio State|1
South Carolina|Massachusetts|1
Southern Methodist|Houston|1
Syracuse|Boston College|1
Texas-El Paso|Texas-San Antonio|1
Toledo|Central Michigan|1
Tulsa|Tulane|1
Utah|UCLA|1
Utah State|Fresno State|1
Washington|Oregon State|1
Washington State|Arizona State|1
West Virginia|Texas Christian|1
Western Kentucky|Old Dominion|1
Western Michigan|Eastern Michigan|1
Wisconsin|Iowa|1
Wyoming|Nevada|1
Appalachian State|Georgia Southern|1
Buffalo|Akron|1
Ohio|Toledo|1
Southern California|California|1
Virginia Tech|Pittsburgh|1
Air Force|Fresno State|1
San Diego State|Utah State|1
South Florida|Navy|1
Arkansas State|Louisiana-Monroe|1
Army|Wake Forest|1
Auburn|Mississippi|1
Boston College|North Carolina State|1
Clemson|Florida State|1
East Carolina|Connecticut|1
Florida|Georgia|1
Georgia Tech|Duke|1
Houston|Central Florida|1
Indiana|Maryland|1
Kansas State|Iowa State|1
Kent State|Central Michigan|1
Kentucky|Missouri|1
Louisiana Tech|Rice|1
Louisville|Virginia|1
Miami (OH)|Eastern Michigan|1
Michigan|Michigan State|1
Middle Tennessee State|Florida International|1
Minnesota|Illinois|1
New Mexico|Hawaii|1
Notre Dame|Miami (FL)|1
Ohio State|Northwestern|1
Oklahoma|Kansas|1
Oklahoma State|West Virginia|1
Old Dominion|Texas-El Paso|1
Oregon|Arizona State|1
Penn State|Purdue|1
San Jose State|Nevada-Las Vegas|1
South Alabama|Georgia State|1
South Carolina|Tennessee|1
Southern Methodist|Tulane|1
Southern Mississippi|Marshall|1
Stanford|Arizona|1
Temple|Cincinnati|1
Texas|Baylor|1
Texas A&M|New Mexico State|1
Texas Tech|Texas Christian|1
Texas-San Antonio|North Texas|1
Tulsa|Memphis|1
Washington|Utah|1
Washington State|Oregon State|1
Western Kentucky|Florida Atlantic|1
Wisconsin|Nebraska|1
Wyoming|Boise State|1
Northern Illinois|Bowling Green State|1
Western Michigan|Ball State|1
Toledo|Akron|1
Arkansas State|Georgia State|1
Colorado|UCLA|1
Ohio|Buffalo|1
Oklahoma|Iowa State|1
Boise State|San Jose State|1
Miami (OH)|Central Michigan|1
Temple|Connecticut|1
Air Force|Army|1
Alabama|Louisiana State|1
Appalachian State|Texas State|1
Arkansas|Florida|1
Auburn|Vanderbilt|1
Brigham Young|Cincinnati|1
Central Florida|Tulane|1
Charlotte|Southern Mississippi|1
Clemson|Syracuse|1
Colorado State|Fresno State|1
Florida Atlantic|Rice|1
Florida State|North Carolina State|1
Georgia|Kentucky|1
Idaho|Louisiana-Lafayette|1
Illinois|Michigan State|1
Indiana|Rutgers|1
Louisiana Tech|North Texas|1
Louisiana-Monroe|South Alabama|1
Louisville|Boston College|1
Memphis|Southern Methodist|1
Miami (FL)|Pittsburgh|1
Michigan|Maryland|1
Minnesota|Purdue|1
Mississippi|Georgia Southern|1
Mississippi State|Texas A&M|1
Navy|Notre Dame|1
New Mexico|Nevada|1
North Carolina|Georgia Tech|1
Ohio State|Nebraska|1
Oklahoma State|Kansas State|1
Old Dominion|Marshall|1
Penn State|Iowa|1
San Diego State|Hawaii|1
South Carolina|Missouri|1
Southern California|Oregon|1
Stanford|Oregon State|1
Texas|Texas Tech|1
Texas Christian|Baylor|1
Texas-San Antonio|Middle Tennessee State|1
Troy|Massachusetts|1
Tulsa|East Carolina|1
Virginia Tech|Duke|1
Wake Forest|Virginia|1
Washington|California|1
Washington State|Arizona|1
West Virginia|Kansas|1
Western Kentucky|Florida International|1
Wisconsin|Northwestern|1
Wyoming|Utah State|1
Eastern Michigan|Ball State|1
Western Michigan|Kent State|1
Bowling Green State|Akron|1
Toledo|Northern Illinois|1
Duke|North Carolina|1
Louisiana-Lafayette|Georgia Southern|1
Utah|Arizona State|1
Florida State|Boston College|1
Air Force|Colorado State|1
Alabama|Mississippi State|1
Arkansas State|New Mexico State|1
Boise State|Hawaii|1
Central Florida|Cincinnati|1
Colorado|Arizona|1
Florida|South Carolina|1
Florida Atlantic|Texas-El Paso|1
Georgia|Auburn|1
Georgia Tech|Virginia Tech|1
Houston|Tulane|1
Idaho|Texas State|1
Iowa|Michigan|1
Iowa State|Kansas|1
Louisiana State|Arkansas|1
Louisiana Tech|Texas-San Antonio|1
Louisiana-Monroe|Georgia State|1
Louisville|Wake Forest|1
Marshall|Middle Tennessee State|1
Miami (FL)|Virginia|1
Miami (OH)|Buffalo|1
Michigan State|Rutgers|1
Mississippi|Texas A&M|1
Missouri|Vanderbilt|1
Navy|Tulsa|1
Nebraska|Minnesota|1
Nevada-Las Vegas|Wyoming|1
New Mexico|Utah State|1
North Carolina State|Syracuse|1
Northwestern|Purdue|1
Notre Dame|Army|1
Ohio State|Maryland|1
Oklahoma|Baylor|1
Oklahoma State|Texas Tech|1
Old Dominion|Southern Mississippi|1
Penn State|Indiana|1
Pittsburgh|Clemson|1
Rice|Charlotte|1
San Diego State|Nevada|1
South Florida|Memphis|1
Southern California|Washington|1
Southern Methodist|East Carolina|1
Stanford|Oregon|1
Tennessee|Kentucky|1
Troy|Appalachian State|1
UCLA|Oregon State|1
Washington State|California|1
West Virginia|Texas|1
Western Kentucky|North Texas|1
Wisconsin|Illinois|1
Bowling Green State|Kent State|1
Central Michigan|Ohio|1
Northern Illinois|Eastern Michigan|1
Toledo|Ball State|1
Arkansas State|Troy|1
Houston|Louisville|1
Boise State|Nevada-Las Vegas|1
Memphis|Cincinnati|1
Air Force|San Jose State|1
Appalachian State|Louisiana-Monroe|1
Arkansas|Mississippi State|1
Boston College|Connecticut|1
Brigham Young|Massachusetts|1
Clemson|Wake Forest|1
Colorado|Washington State|1
Colorado State|New Mexico|1
Florida|Louisiana State|1
Florida International|Marshall|1
Florida State|Syracuse|1
Georgia|Louisiana-Lafayette|1
Georgia State|Georgia Southern|1
Georgia Tech|Virginia|1
Hawaii|Fresno State|1
Iowa|Illinois|1
Iowa State|Texas Tech|1
Kansas|Texas|1
Kansas State|Baylor|1
Miami (FL)|North Carolina State|1
Michigan|Indiana|1
Middle Tennessee State|Charlotte|1
Minnesota|Northwestern|1
Navy|East Carolina|1
Nebraska|Maryland|1
Nevada|Utah State|1
New Mexico State|Texas State|1
North Texas|Southern Mississippi|1
Ohio State|Michigan State|1
Oklahoma|West Virginia|1
Oklahoma State|Texas Christian|1
Old Dominion|Florida Atlantic|1
Oregon|Utah|1
Oregon State|Arizona|1
Penn State|Rutgers|1
Pittsburgh|Duke|1
Rice|Texas-El Paso|1
South Florida|Southern Methodist|1
Southern California|UCLA|1
Stanford|California|1
Temple|Tulane|1
Tennessee|Missouri|1
Texas A&M|Texas-San Antonio|1
Tulsa|Central Florida|1
Vanderbilt|Mississippi|1
Virginia Tech|Notre Dame|1
Washington|Arizona State|1
Western Michigan|Buffalo|1
Wisconsin|Purdue|1
Wyoming|San Diego State|1
Eastern Michigan|Central Michigan|1
Miami (OH)|Ball State|1
Ohio|Akron|1
Louisiana State|Texas A&M|1
Air Force|Boise State|1
Arizona|Arizona State|1
Bowling Green State|Buffalo|1
Iowa|Nebraska|1
Memphis|Houston|1
Missouri|Arkansas|1
North Carolina State|North Carolina|1
Northern Illinois|Kent State|1
Southern Mississippi|Louisiana Tech|1
Texas Christian|Texas|1
Texas Tech|Baylor|1
Tulsa|Cincinnati|1
Washington|Washington State|1
Western Michigan|Toledo|1
Alabama|Auburn|1
Appalachian State|New Mexico State|1
Boston College|Wake Forest|1
Brigham Young|Utah State|1
California|UCLA|1
Clemson|South Carolina|1
Colorado|Utah|1
Colorado State|San Diego State|1
Florida State|Florida|1
Georgia Tech|Georgia|1
Hawaii|Massachusetts|1
Idaho|South Alabama|1
Indiana|Purdue|1
Kansas State|Kansas|1
Kentucky|Louisville|1
Louisiana-Lafayette|Arkansas State|1
Maryland|Rutgers|1
Miami (FL)|Duke|1
Middle Tennessee State|Florida Atlantic|1
Mississippi State|Mississippi|1
Navy|Southern Methodist|1
Nevada|Nevada-Las Vegas|1
New Mexico|Wyoming|1
Northwestern|Illinois|1
Ohio State|Michigan|1
Old Dominion|Florida International|1
Oregon State|Oregon|1
Penn State|Michigan State|1
Pittsburgh|Syracuse|1
San Jose State|Fresno State|1
South Florida|Central Florida|1
Southern California|Notre Dame|1
Stanford|Rice|1
Temple|East Carolina|1
Texas-El Paso|North Texas|1
Texas-San Antonio|Charlotte|1
Troy|Texas State|1
Tulane|Connecticut|1
Vanderbilt|Tennessee|1
Virginia Tech|Virginia|1
West Virginia|Iowa State|1
Western Kentucky|Marshall|1
Wisconsin|Minnesota|1
Washington|Colorado|1
Western Michigan|Ohio|1
Alabama|Florida|1
Arkansas State|Texas State|1
Clemson|Virginia Tech|1
Georgia Southern|Troy|1
Idaho|Georgia State|1
Kansas State|Texas Christian|1
Louisiana-Lafayette|Louisiana-Monroe|1
Oklahoma|Oklahoma State|1
Penn State|Wisconsin|1
San Diego State|Wyoming|1
South Alabama|New Mexico State|1
Temple|Navy|1
West Virginia|Baylor|1
Western Kentucky|Louisiana Tech|1
Army|Navy|1
Hawaii|California|0
Florida International|Indiana|0
Charlotte|Louisville|0
Oregon State|Minnesota|0
Vanderbilt|South Carolina|0
Appalachian State|Tennessee|0
Tulane|Wake Forest|0
Rice|Western Kentucky|0
Temple|Army|0
Georgia State|Ball State|0
Colorado State|Colorado|0
Kansas State|Stanford|0
Arkansas State|Toledo|0
Southern California|Alabama|0
Louisiana Tech|Arkansas|0
Louisiana-Lafayette|Boise State|0
Arizona|Brigham Young|0
Auburn|Clemson|0
Massachusetts|Florida|0
North Carolina|Georgia|0
Boston College|Georgia Tech|0
Oklahoma|Houston|0
Miami (OH)|Iowa|0
Hawaii|Michigan|0
Fresno State|Nebraska|0
Bowling Green State|Ohio State|0
Kent State|Penn State|0
Mississippi State|South Alabama|0
North Texas|Southern Methodist|0
Kentucky|Southern Mississippi|0
UCLA|Texas A&M|0
Ohio|Texas State|0
New Mexico State|Texas-El Paso|0
San Jose State|Tulsa|0
Rutgers|Washington|0
Missouri|West Virginia|0
Northwestern|Western Michigan|0
Louisiana State|Wisconsin|0
Northern Illinois|Wyoming|0
Notre Dame|Texas|0
Mississippi|Florida State|0
Syracuse|Louisville|0
Florida International|Maryland|0
Georgia State|Air Force|0
Western Kentucky|Alabama|0
Old Dominion|Appalachian State|0
Texas Tech|Arizona State|0
Texas Christian|Arkansas|0
Rice|Army|0
Arkansas State|Auburn|0
Southern Methodist|Baylor|0
Washington State|Boise State|0
Massachusetts|Boston College|0
Oklahoma State|Central Michigan|0
Purdue|Cincinnati|0
Troy|Clemson|0
Texas-San Antonio|Colorado State|0
North Carolina State|East Carolina|0
Kentucky|Florida|0
South Alabama|Georgia Southern|0
Ball State|Indiana|0
Iowa State|Iowa|0
Florida Atlantic|Miami (FL)|0
Central Florida|Michigan|0
South Carolina|Mississippi State|0
Eastern Michigan|Missouri|0
Connecticut|Navy|0
Wyoming|Nebraska|0
New Mexico|New Mexico State|0
Illinois|North Carolina|0
Nevada|Notre Dame|0
Kansas|Ohio|0
Tulsa|Ohio State|0
Louisiana-Monroe|Oklahoma|0
Virginia|Oregon|0
Penn State|Pittsburgh|0
California|San Diego State|0
Northern Illinois|South Florida|0
Utah State|Southern California|0
Virginia Tech|Tennessee|0
Texas-El Paso|Texas|0
Nevada-Las Vegas|UCLA|0
Brigham Young|Utah|0
Middle Tennessee State|Vanderbilt|0
Duke|Wake Forest|0
Idaho|Washington|0
Akron|Wisconsin|0
Cincinnati|Houston|0
Texas-San Antonio|Arizona State|0
Rice|Baylor|0
Arkansas State|Utah State|0
Marshall|Akron|0
Mississippi|Alabama|0
Hawaii|Arizona|0
Texas State|Arkansas|0
Texas-El Paso|Army|0
Texas|California|0
Nevada-Las Vegas|Central Michigan|0
Virginia|Connecticut|0
Charlotte|Eastern Michigan|0
North Texas|Florida|0
Missouri|Georgia|0
Louisiana-Monroe|Georgia Southern|0
Vanderbilt|Georgia Tech|0
Florida Atlantic|Kansas State|0
New Mexico State|Kentucky|0
Mississippi State|Louisiana State|0
South Alabama|Louisiana-Lafayette|0
Florida State|Louisville|0
Central Florida|Maryland|0
Florida International|Massachusetts|0
Kansas|Memphis|0
Appalachian State|Miami (FL)|0
Colorado|Michigan|0
Notre Dame|Michigan State|0
Bowling Green State|Middle Tennessee State|0
Tulane|Navy|0
Oregon|Nebraska|0
Buffalo|Nevada|0
Old Dominion|North Carolina State|0
Duke|Northwestern|0
Oklahoma|Ohio State|0
Pittsburgh|Oklahoma State|0
Temple|Penn State|0
New Mexico|Rutgers|0
Northern Illinois|San Diego State|0
East Carolina|South Carolina|0
Syracuse|South Florida|0
Southern California|Stanford|0
Ohio|Tennessee|0
Auburn|Texas A&M|0
Iowa State|Texas Christian|0
Louisiana Tech|Texas Tech|0
Fresno State|Toledo|0
Southern Mississippi|Troy|0
Brigham Young|UCLA|0
San Jose State|Utah|0
Boston College|Virginia Tech|0
Idaho|Washington State|0
Miami (OH)|Western Kentucky|0
Illinois|Western Michigan|0
Georgia State|Wisconsin|0
Georgia Tech|Clemson|0
Wyoming|Eastern Michigan|0
Southern Methodist|Texas Christian|0
Southern California|Utah|0
Utah State|Air Force|0
Kent State|Alabama|0
Akron|Appalachian State|0
California|Arizona State|0
Louisiana State|Auburn|0
Florida Atlantic|Ball State|0
Oklahoma State|Baylor|0
Oregon State|Boise State|0
Army|Buffalo|0
Florida International|Central Florida|0
Miami (OH)|Cincinnati|0
Oregon|Colorado|0
Notre Dame|Duke|0
South Florida|Florida State|0
Texas State|Houston|0
Nevada-Las Vegas|Idaho|0
Rutgers|Iowa|0
San Jose State|Iowa State|0
South Carolina|Kentucky|0
Marshall|Louisville|0
Bowling Green State|Memphis|0
Penn State|Michigan|0
Louisiana Tech|Middle Tennessee State|0
Colorado State|Minnesota|0
Georgia|Mississippi|0
Massachusetts|Mississippi State|0
Northwestern|Nebraska|0
Pittsburgh|North Carolina|0
Rice|North Texas|0
Texas-San Antonio|Old Dominion|0
Nevada|Purdue|0
Texas-El Paso|Southern Mississippi|0
UCLA|Stanford|0
Connecticut|Syracuse|0
Charlotte|Temple|0
Florida|Tennessee|0
Arkansas|Texas A&M|0
New Mexico State|Troy|0
Louisiana-Lafayette|Tulane|0
Fresno State|Tulsa|0
Western Kentucky|Vanderbilt|0
Central Michigan|Virginia|0
East Carolina|Virginia Tech|0
Indiana|Wake Forest|0
Arizona|Washington|0
Brigham Young|West Virginia|0
Georgia Southern|Western Michigan|0
Michigan State|Wisconsin|0
Connecticut|Houston|0
Kansas|Texas Tech|0
Toledo|Brigham Young|0
Stanford|Washington|0
Navy|Air Force|0
Kent State|Akron|0
Kentucky|Alabama|0
Georgia State|Appalachian State|0
Louisiana-Monroe|Auburn|0
Iowa State|Baylor|0
Utah State|Boise State|0
Buffalo|Boston College|0
Utah|California|0
East Carolina|Central Florida|0
Louisville|Clemson|0
Oregon State|Colorado|0
Bowling Green State|Eastern Michigan|0
Vanderbilt|Florida|0
Florida Atlantic|Florida International|0
Nevada|Hawaii|0
Michigan State|Indiana|0
Missouri|Louisiana State|0
Texas-El Paso|Louisiana Tech|0
Purdue|Maryland|0
Georgia Tech|Miami (FL)|0
Wisconsin|Michigan|0
North Texas|Middle Tennessee State|0
Memphis|Mississippi|0
Illinois|Nebraska|0
Fresno State|Nevada-Las Vegas|0
San Jose State|New Mexico|0
Louisiana-Lafayette|New Mexico State|0
Florida State|North Carolina|0
Wake Forest|North Carolina State|0
Ball State|Northern Illinois|0
Iowa|Northwestern|0
Syracuse|Notre Dame|0
Miami (OH)|Ohio|0
Rutgers|Ohio State|0
Texas Christian|Oklahoma|0
Texas|Oklahoma State|0
Charlotte|Old Dominion|0
Minnesota|Penn State|0
Marshall|Pittsburgh|0
San Diego State|South Alabama|0
Cincinnati|South Florida|0
Arizona State|Southern California|0
Rice|Southern Mississippi|0
Southern Methodist|Temple|0
Georgia|Tennessee|0
South Carolina|Texas A&M|0
Idaho|Troy|0
Massachusetts|Tulane|0
Arizona|UCLA|0
Duke|Virginia|0
Oregon|Washington State|0
Kansas State|West Virginia|0
Central Michigan|Western Michigan|0
Colorado State|Wyoming|0
Georgia Southern|Arkansas State|0
Western Kentucky|Louisiana Tech|0
Temple|Memphis|0
New Mexico|Boise State|0
Boston College|Clemson|0
Massachusetts|Old Dominion|0
Southern Methodist|Tulsa|0
Miami (OH)|Akron|0
Arkansas|Alabama|0
UCLA|Arizona State|0
Mississippi State|Auburn|0
Michigan State|Brigham Young|0
Ball State|Central Michigan|0
Utah State|Colorado State|0
Cincinnati|Connecticut|0
Army|Duke|0
Texas-El Paso|Florida International|0
Miami (FL)|Florida State|0
Texas State|Georgia State|0
San Jose State|Hawaii|0
Louisiana-Monroe|Idaho|0
Minnesota|Iowa|0
Texas Tech|Kansas State|0
Buffalo|Kent State|0
Vanderbilt|Kentucky|0
Rutgers|Michigan|0
Houston|Navy|0
Fresno State|Nevada|0
Notre Dame|North Carolina State|0
Marshall|North Texas|0
Bowling Green State|Ohio|0
Indiana|Ohio State|0
Texas|Oklahoma|0
Iowa State|Oklahoma State|0
California|Oregon State|0
Maryland|Penn State|0
Georgia Tech|Pittsburgh|0
Illinois|Purdue|0
Nevada-Las Vegas|San Diego State|0
East Carolina|South Florida|0
Colorado|Southern California|0
Tennessee|Texas A&M|0
Kansas|Texas Christian|0
Southern Mississippi|Texas-San Antonio|0
Eastern Michigan|Toledo|0
Arizona|Utah|0
North Carolina|Virginia Tech|0
Syracuse|Wake Forest|0
Oregon|Washington|0
Stanford|Washington State|0
Northern Illinois|Western Michigan|0
Air Force|Wyoming|0
Florida Atlantic|Charlotte|0
South Carolina|Georgia|0
Louisiana-Lafayette|Appalachian State|0
Mississippi State|Brigham Young|0
Duke|Louisville|0
Tulane|Memphis|0
Fresno State|San Diego State|0
Tennessee|Alabama|0
Mississippi|Arkansas|0
South Alabama|Arkansas State|0
Buffalo|Ball State|0
Kansas|Baylor|0
Colorado State|Boise State|0
Northern Illinois|Central Michigan|0
North Carolina State|Clemson|0
Arizona State|Colorado|0
Ohio|Eastern Michigan|0
Missouri|Florida|0
Charlotte|Florida International|0
Wake Forest|Florida State|0
Georgia Southern|Georgia Tech|0
Tulsa|Houston|0
New Mexico State|Idaho|0
Rutgers|Illinois|0
Purdue|Iowa|0
Southern Mississippi|Louisiana State|0
Massachusetts|Louisiana Tech|0
Texas State|Louisiana-Monroe|0
Florida Atlantic|Marshall|0
Kent State|Miami (OH)|0
Maryland|Minnesota|0
Indiana|Nebraska|0
Hawaii|Nevada-Las Vegas|0
Air Force|New Mexico|0
Miami (FL)|North Carolina|0
Michigan State|Northwestern|0
Wisconsin|Ohio State|0
Kansas State|Oklahoma|0
Virginia|Pittsburgh|0
Nevada|San Jose State|0
Connecticut|South Florida|0
Arizona|Southern California|0
Notre Dame|Stanford|0
Virginia Tech|Syracuse|0
Central Florida|Temple|0
Iowa State|Texas|0
Rice|Texas-San Antonio|0
Bowling Green State|Toledo|0
Georgia State|Troy|0
Oregon State|Utah|0
Georgia|Vanderbilt|0
UCLA|Washington State|0
Texas Tech|West Virginia|0
Middle Tennessee State|Western Kentucky|0
Akron|Western Michigan|0
Brigham Young|Boise State|0
South Alabama|Troy|0
Miami (FL)|Virginia Tech|0
Oregon|California|0
San Jose State|San Diego State|0
South Florida|Temple|0
Ball State|Akron|0
Texas A&M|Alabama|0
Idaho|Appalachian State|0
Arkansas|Auburn|0
Connecticut|Central Florida|0
Marshall|Charlotte|0
East Carolina|Cincinnati|0
Stanford|Colorado|0
Nevada-Las Vegas|Colorado State|0
New Mexico State|Georgia Southern|0
Air Force|Hawaii|0
Texas|Kansas State|0
Mississippi State|Kentucky|0
Mississippi|Louisiana State|0
Florida International|Louisiana Tech|0
Texas State|Louisiana-Lafayette|0
North Carolina State|Louisville|0
Michigan State|Maryland|0
Bowling Green State|Miami (OH)|0
Illinois|Michigan|0
Missouri|Middle Tennessee State|0
Rutgers|Minnesota|0
Memphis|Navy|0
Purdue|Nebraska|0
Louisiana-Monroe|New Mexico|0
Virginia|North Carolina|0
Army|North Texas|0
Buffalo|Northern Illinois|0
Indiana|Northwestern|0
Kent State|Ohio|0
Texas Tech|Oklahoma|0
Kansas|Oklahoma State|0
Ohio State|Penn State|0
Massachusetts|South Carolina|0
Houston|Southern Methodist|0
Boston College|Syracuse|0
Texas-San Antonio|Texas-El Paso|0
Central Michigan|Toledo|0
Tulane|Tulsa|0
UCLA|Utah|0
Fresno State|Utah State|0
Oregon State|Washington|0
Arizona State|Washington State|0
Texas Christian|West Virginia|0
Old Dominion|Western Kentucky|0
Eastern Michigan|Western Michigan|0
Iowa|Wisconsin|0
Nevada|Wyoming|0
Georgia Southern|Appalachian State|0
Akron|Buffalo|0
Toledo|Ohio|0
California|Southern California|0
Pittsburgh|Virginia Tech|0
Fresno State|Air Force|0
Utah State|San Diego State|0
Navy|South Florida|0
Louisiana-Monroe|Arkansas State|0
Wake Forest|Army|0
Mississippi|Auburn|0
North Carolina State|Boston College|0
Florida State|Clemson|0
Connecticut|East Carolina|0
Georgia|Florida|0
Duke|Georgia Tech|0
Central Florida|Houston|0
Maryland|Indiana|0
Iowa State|Kansas State|0
Central Michigan|Kent State|0
Missouri|Kentucky|0
Rice|Louisiana Tech|0
Virginia|Louisville|0
Eastern Michigan|Miami (OH)|0
Michigan State|Michigan|0
Florida International|Middle Tennessee State|0
Illinois|Minnesota|0
Hawaii|New Mexico|0
Miami (FL)|Notre Dame|0
Northwestern|Ohio State|0
Kansas|Oklahoma|0
West Virginia|Oklahoma State|0
Texas-El Paso|Old Dominion|0
Arizona State|Oregon|0
Purdue|Penn State|0
Nevada-Las Vegas|San Jose State|0
Georgia State|South Alabama|0
Tennessee|South Carolina|0
Tulane|Southern Methodist|0
Marshall|Southern Mississippi|0
Arizona|Stanford|0
Cincinnati|Temple|0
Baylor|Texas|0
New Mexico State|Texas A&M|0
Texas Christian|Texas Tech|0
North Texas|Texas-San Antonio|0
Memphis|Tulsa|0
Utah|Washington|0
Oregon State|Washington State|0
Florida Atlantic|Western Kentucky|0
Nebraska|Wisconsin|0
Boise State|Wyoming|0
Bowling Green State|Northern Illinois|0
Ball State|Western Michigan|0
Akron|Toledo|0
Georgia State|Arkansas State|0
UCLA|Colorado|0
Buffalo|Ohio|0
Iowa State|Oklahoma|0
San Jose State|Boise State|0
Central Michigan|Miami (OH)|0
Connecticut|Temple|0
Army|Air Force|0
Louisiana State|Alabama|0
Texas State|Appalachian State|0
Florida|Arkansas|0
Vanderbilt|Auburn|0
Cincinnati|Brigham Young|0
Tulane|Central Florida|0
Southern Mississippi|Charlotte|0
Syracuse|Clemson|0
Fresno State|Colorado State|0
Rice|Florida Atlantic|0
North Carolina State|Florida State|0
Kentucky|Georgia|0
Louisiana-Lafayette|Idaho|0
Michigan State|Illinois|0
Rutgers|Indiana|0
North Texas|Louisiana Tech|0
South Alabama|Louisiana-Monroe|0
Boston College|Louisville|0
Southern Methodist|Memphis|0
Pittsburgh|Miami (FL)|0
Maryland|Michigan|0
Purdue|Minnesota|0
Georgia Southern|Mississippi|0
Texas A&M|Mississippi State|0
Notre Dame|Navy|0
Nevada|New Mexico|0
Georgia Tech|North Carolina|0
Nebraska|Ohio State|0
Kansas State|Oklahoma State|0
Marshall|Old Dominion|0
Iowa|Penn State|0
Hawaii|San Diego State|0
Missouri|South Carolina|0
Oregon|Southern California|0
Oregon State|Stanford|0
Texas Tech|Texas|0
Baylor|Texas Christian|0
Middle Tennessee State|Texas-San Antonio|0
Massachusetts|Troy|0
East Carolina|Tulsa|0
Duke|Virginia Tech|0
Virginia|Wake Forest|0
California|Washington|0
Arizona|Washington State|0
Kansas|West Virginia|0
Florida International|Western Kentucky|0
Northwestern|Wisconsin|0
Utah State|Wyoming|0
Ball State|Eastern Michigan|0
Kent State|Western Michigan|0
Akron|Bowling Green State|0
Northern Illinois|Toledo|0
North Carolina|Duke|0
Georgia Southern|Louisiana-Lafayette|0
Arizona State|Utah|0
Boston College|Florida State|0
Colorado State|Air Force|0
Mississippi State|Alabama|0
New Mexico State|Arkansas State|0
Hawaii|Boise State|0
Cincinnati|Central Florida|0
Arizona|Colorado|0
South Carolina|Florida|0
Texas-El Paso|Florida Atlantic|0
Auburn|Georgia|0
Virginia Tech|Georgia Tech|0
Tulane|Houston|0
Texas State|Idaho|0
Michigan|Iowa|0
Kansas|Iowa State|0
Arkansas|Louisiana State|0
Texas-San Antonio|Louisiana Tech|0
Georgia State|Louisiana-Monroe|0
Wake Forest|Louisville|0
Middle Tennessee State|Marshall|0
Virginia|Miami (FL)|0
Buffalo|Miami (OH)|0
Rutgers|Michigan State|0
Texas A&M|Mississippi|0
Vanderbilt|Missouri|0
Tulsa|Navy|0
Minnesota|Nebraska|0
Wyoming|Nevada-Las Vegas|0
Utah State|New Mexico|0
Syracuse|North Carolina State|0
Purdue|Northwestern|0
Army|Notre Dame|0
Maryland|Ohio State|0
Baylor|Oklahoma|0
Texas Tech|Oklahoma State|0
Southern Mississippi|Old Dominion|0
Indiana|Penn State|0
Clemson|Pittsburgh|0
Charlotte|Rice|0
Nevada|San Diego State|0
Memphis|South Florida|0
Washington|Southern California|0
East Carolina|Southern Methodist|0
Oregon|Stanford|0
Kentucky|Tennessee|0
Appalachian State|Troy|0
Oregon State|UCLA|0
California|Washington State|0
Texas|West Virginia|0
North Texas|Western Kentucky|0
Illinois|Wisconsin|0
Kent State|Bowling Green State|0
Ohio|Central Michigan|0
Eastern Michigan|Northern Illinois|0
Ball State|Toledo|0
Troy|Arkansas State|0
Louisville|Houston|0
Nevada-Las Vegas|Boise State|0
Cincinnati|Memphis|0
San Jose State|Air Force|0
Louisiana-Monroe|Appalachian State|0
Mississippi State|Arkansas|0
Connecticut|Boston College|0
Massachusetts|Brigham Young|0
Wake Forest|Clemson|0
Washington State|Colorado|0
New Mexico|Colorado State|0
Louisiana State|Florida|0
Marshall|Florida International|0
Syracuse|Florida State|0
Louisiana-Lafayette|Georgia|0
Georgia Southern|Georgia State|0
Virginia|Georgia Tech|0
Fresno State|Hawaii|0
Illinois|Iowa|0
Texas Tech|Iowa State|0
Texas|Kansas|0
Baylor|Kansas State|0
North Carolina State|Miami (FL)|0
Indiana|Michigan|0
Charlotte|Middle Tennessee State|0
Northwestern|Minnesota|0
East Carolina|Navy|0
Maryland|Nebraska|0
Utah State|Nevada|0
Texas State|New Mexico State|0
Southern Mississippi|North Texas|0
Michigan State|Ohio State|0
West Virginia|Oklahoma|0
Texas Christian|Oklahoma State|0
Florida Atlantic|Old Dominion|0
Utah|Oregon|0
Arizona|Oregon State|0
Rutgers|Penn State|0
Duke|Pittsburgh|0
Texas-El Paso|Rice|0
Southern Methodist|South Florida|0
UCLA|Southern California|0
California|Stanford|0
Tulane|Temple|0
Missouri|Tennessee|0
Texas-San Antonio|Texas A&M|0
Central Florida|Tulsa|0
Mississippi|Vanderbilt|0
Notre Dame|Virginia Tech|0
Arizona State|Washington|0
Buffalo|Western Michigan|0
Purdue|Wisconsin|0
San Diego State|Wyoming|0
Central Michigan|Eastern Michigan|0
Ball State|Miami (OH)|0
Akron|Ohio|0
Texas A&M|Louisiana State|0
Boise State|Air Force|0
Arizona State|Arizona|0
Buffalo|Bowling Green State|0
Nebraska|Iowa|0
Houston|Memphis|0
Arkansas|Missouri|0
North Carolina|North Carolina State|0
Kent State|Northern Illinois|0
Louisiana Tech|Southern Mississippi|0
Texas|Texas Christian|0
Baylor|Texas Tech|0
Cincinnati|Tulsa|0
Washington State|Washington|0
Toledo|Western Michigan|0
Auburn|Alabama|0
New Mexico State|Appalachian State|0
Wake Forest|Boston College|0
Utah State|Brigham Young|0
UCLA|California|0
South Carolina|Clemson|0
Utah|Colorado|0
San Diego State|Colorado State|0
Florida|Florida State|0
Georgia|Georgia Tech|0
Massachusetts|Hawaii|0
South Alabama|Idaho|0
Purdue|Indiana|0
Kansas|Kansas State|0
Louisville|Kentucky|0
Arkansas State|Louisiana-Lafayette|0
Rutgers|Maryland|0
Duke|Miami (FL)|0
Florida Atlantic|Middle Tennessee State|0
Mississippi|Mississippi State|0
Southern Methodist|Navy|0
Nevada-Las Vegas|Nevada|0
Wyoming|New Mexico|0
Illinois|Northwestern|0
Michigan|Ohio State|0
Florida International|Old Dominion|0
Oregon|Oregon State|0
Michigan State|Penn State|0
Syracuse|Pittsburgh|0
Fresno State|San Jose State|0
Central Florida|South Florida|0
Notre Dame|Southern California|0
Rice|Stanford|0
East Carolina|Temple|0
North Texas|Texas-El Paso|0
Charlotte|Texas-San Antonio|0
Texas State|Troy|0
Connecticut|Tulane|0
Tennessee|Vanderbilt|0
Virginia|Virginia Tech|0
Iowa State|West Virginia|0
Marshall|Western Kentucky|0
Minnesota|Wisconsin|0
Colorado|Washington|0
Ohio|Western Michigan|0
Florida|Alabama|0
Texas State|Arkansas State|0
Virginia Tech|Clemson|0
Troy|Georgia Southern|0
Georgia State|Idaho|0
Texas Christian|Kansas State|0
Louisiana-Monroe|Louisiana-Lafayette|0
Oklahoma State|Oklahoma|0
Wisconsin|Penn State|0
Wyoming|San Diego State|0
New Mexico State|South Alabama|0
Navy|Temple|0
Baylor|West Virginia|0
Louisiana Tech|Western Kentucky|0
Navy|Army|0
